…
<i>Previously on this blog...</i> analizamos algunas alternativas para <a href="https://germangfeler.github.io/datascience/shape-of-you/">visualizar datos continuos</a>. Hoy le toca el turno a los datos categóricos, es decir, variables que pueden tomar una cantidad limitada de valores. Ejemplos de esto pueden ser: el grupo sanguíneo (A, B, AB o 0), el barrio en que uno vive (Alberdi, Güemes, Nueva Córdoba, entre otros) o la religión que profesa (cristiano, musulmán, judío, entre otros).

Después de bucear la web en busca de un dataset interesante para mostrar estas técnicas llegué a éste que tiene información sobre los personajes de la saga Star Wars (<i>alerta nerd</i>). Para simplificar un poco usaremos solo los personajes humanos.

```r
> library(ggplot2)
> library(dplyr)

> starwars
# A tibble: 87 x 13
   name         height  mass hair_color  skin_color eye_color birth_year gender
   <chr>         <int> <dbl> <chr>       <chr>      <chr>          <dbl> <chr> 
 1 Luke Skywal~    172    77 blond       fair       blue            19   male  
 2 C-3PO           167    75 NA          gold       yellow         112   NA    
 3 R2-D2            96    32 NA          white, bl~ red             33   NA    
 4 Darth Vader     202   136 none        white      yellow          41.9 male  
 5 Leia Organa     150    49 brown       light      brown           19   female
 6 Owen Lars       178   120 brown, grey light      blue            52   male  
 7 Beru Whites~    165    75 brown       light      blue            47   female
 8 R5-D4            97    32 NA          white, red red             NA   NA    
 9 Biggs Darkl~    183    84 black       light      brown           24   male  
10 Obi-Wan Ken~    182    77 auburn, wh~ fair       blue-gray       57   male  
# ... with 77 more rows, and 5 more variables: homeworld <chr>, species <chr>,
#   films <list>, vehicles <list>, starships <list>
…
