…
```r
## Cargamos los paquetes necesarios
library("raster")
library("leaflet")
library("tidyverse")

## Seteamos el directorio de trabajo
setwd("/home/datos/paso2019/120819-054029/")

## Cargamos datos de las mesas
mesas_lista <- read_delim("mesas_totales_lista.dsv", delim="|")
mesas_lista

# A tibble: 3,665,201 x 8
   CODIGO_DISTRITO CODIGO_SECCION CODIGO_CIRCUITO CODIGO_MESA CODIGO_CATEGORIA
   <chr>           <chr>          <chr>           <chr>       <chr>           
 1 01              01001          01001000001     0100100001X 000100000000000 
 2 01              01001          01001000001     0100100001X 000100000000000 
 3 01              01001          01001000001     0100100001X 000100000000000 
 4 01              01001          01001000001     0100100001X 000100000000000 
 5 01              01001          01001000001     0100100001X 000100000000000 
 6 01              01001          01001000001     0100100001X 000100000000000 
 7 01              01001          01001000001     0100100001X 000100000000000 
 8 01              01001          01001000001     0100100001X 000100000000000 
 9 01              01001          01001000001     0100100001X 000100000000000 
10 01              01001          01001000001     0100100001X 000100000000000 
# … with 3,665,191 more rows, and 3 more variables: CODIGO_AGRUPACION <chr>,
#   CODIGO_LISTA <chr>, VOTOS_LISTA <dbl>
```

En las PASO los porcentajes se calculan sobre el total de votos válidos (incluye voto en blanco) mientras que en las generales se calcula sobre el total de votos válidos positivos (no los incluye). Por lo tanto necesitamos obtener el número de votos en blanco, que no está en la tavla mesas_totales_agrp_politica sino en mesas_totales:

```r
## Voto por categoria (blanco, impugnado, etc) 
vcat <- read_delim("mesas_totales.dsv", delim="|")
vcat

# A tibble: 1,719,994 x 7
   CODIGO_DISTRITO CODIGO_SECCION CODIGO_CIRCUITO CODIGO_MESA CODIGO_CATEGORIA
   <chr>           <chr>          <chr>           <chr>       <chr>           
 1 01              01001          01001000001     0100100001X 000100000000000 
 2 01              01001          01001000001     0100100001X 000100000000000 
 3 01              01001          01001000001     0100100001X 000100000000000 
 4 01              01001          01001000001     0100100001X 000100000000000 
 5 01              01001          01001000001     0100100001X 000201000000000 
 6 01              01001          01001000001     0100100001X 000201000000000 
 7 01              01001          01001000001     0100100001X 000201000000000 
 8 01              01001          01001000001     0100100001X 000201000000000 
 9 01              01001          01001000001     0100100001X 000301000000000 
10 01              01001          01001000001     0100100001X 000301000000000 
# … with 1,719,984 more rows, and 2 more variables: CONTADOR <chr>, VALOR <dbl>
```
…
## Descripcion postulaciones 
desc_post <- read_delim("descripcion_postulaciones.dsv", delim="|")
desc_post

# A tibble: 1,442 x 6
   CODIGO_CATEGORIA NOMBRE_CATEGORIA CODIGO_AGRUPACI… NOMBRE_AGRUPACI…
   <chr>            <chr>            <chr>            <chr>           
 1 000801000000000  Diputados Ciuda… 01-504           CONSENSO FEDERAL
 2 000801000000000  Diputados Ciuda… 13               MOVIMIENTO AL S…
 3 000801000000000  Diputados Ciuda… 5                DEMOCRATA CRIST…
 4 000801000000000  Diputados Ciuda… 87               UNITE POR LA LI…
 5 000801000000000  Diputados Ciuda… 87               UNITE POR LA LI…
 6 000801000000000  Diputados Ciuda… 01-502           FRENTE DE TODOS 
 7 000801000000000  Diputados Ciuda… 88               PARTIDO DIGNIDA…
 8 000801000000000  Diputados Ciuda… 01-187           AUTODETERMINACI…
 9 000801000000000  Diputados Ciuda… 01-501           FRENTE DE IZQUI…
10 000801000000000  Diputados Ciuda… 01-503           JUNTOS POR EL C…
# … with 1,432 more rows, and 2 more variables: CODIGO_LISTA <chr>,
#   NOMBRE_LISTA <chr>
…
<h2>Cálculo de totales y porcentajes por provincia</h2>

A la tabla con los votos por mesa la voy a condensar para obtener los resultados a nivel de provincia:

```r
xprov <- mesas %>% select(PROV, NOMBRE_AGRUPACION, VOTOS_LISTA) %>% 
          group_by(PROV, NOMBRE_AGRUPACION) %>% 
          summarize(VOTOS=sum(VOTOS_LISTA)) %>%
          arrange(PROV, desc(VOTOS)) 
          
xprov

# A tibble: 264 x 3
# Groups:   PROV [24]
   PROV         NOMBRE_AGRUPACION                                VOTOS
   <fct>        <chr>                                            <dbl>
 1 Buenos Aires FRENTE DE TODOS                                4661554
 2 Buenos Aires JUNTOS POR EL CAMBIO                           2749946
 3 Buenos Aires CONSENSO FEDERAL                                711181
 4 Buenos Aires FRENTE DE IZQUIERDA Y DE TRABAJADORES - UNIDAD  319253
 5 Buenos Aires EN BLANCO                                       304904
 6 Buenos Aires UNITE POR LA LIBERTAD Y LA DIGNIDAD             174887
 7 Buenos Aires FRENTE NOS                                      171376
 8 Buenos Aires MOVIMIENTO AL SOCIALISMO                         71935
 9 Buenos Aires FRENTE PATRIOTA                                  22581
10 Buenos Aires PARTIDO AUTONOMISTA                               8783
# … with 254 more rows
```

Y voy a calcular los porcentajes que obtuvo cada partido en cada provincia:

```r
xprov %<>% 
    group_by(PROV) %>%
    mutate(PCT=round(VOTOS / sum(VOTOS) * 100,2)) %>%
    ungroup()    
    
xprov
# A tibble: 264 x 4
   PROV         NOMBRE_AGRUPACION                                VOTOS   PCT
   <fct>        <chr>                                            <dbl> <dbl>
 1 Buenos Aires FRENTE DE TODOS                                4661554 50.7 
 2 Buenos Aires JUNTOS POR EL CAMBIO                           2749946 29.9 
 3 Buenos Aires CONSENSO FEDERAL                                711181  7.73
 4 Buenos Aires FRENTE DE IZQUIERDA Y DE TRABAJADORES - UNIDAD  319253  3.47
 5 Buenos Aires EN BLANCO                                       304904  3.31
 6 Buenos Aires UNITE POR LA LIBERTAD Y LA DIGNIDAD             174887  1.9 
 7 Buenos Aires FRENTE NOS                                      171376  1.86
 8 Buenos Aires MOVIMIENTO AL SOCIALISMO                         71935  0.78
 9 Buenos Aires FRENTE PATRIOTA                                  22581  0.25
10 Buenos Aires PARTIDO AUTONOMISTA                               8783  0.1 
# … with 254 more rows
```

<h2>Creación de los mapas</h2>

Vamos a llevar los datos a un formato que nos sirva para crear los mapas. Lo que voy a hacer es crear una tabla que en las filas tiene las provincias (24) y en las columnas los partidos políticos (11). Dentro de la tabla estarán los porcentajes que obtuvo cada partido político en cada provincia:

```r
xprov_wide <- xprov %>%
   select(-VOTOS) %>%
   spread(NOMBRE_AGRUPACION, PCT)   
xprov_wide

# A tibble: 264 x 3
# Groups:   PROV [24]
   PROV         NOMBRE_AGRUPACION                                VOTOS
   <fct>        <chr>                                            <dbl>
 1 Buenos Aires FRENTE DE TODOS                                4661554
 2 Buenos Aires JUNTOS POR EL CAMBIO                           2749946
 3 Buenos Aires CONSENSO FEDERAL                                711181
 4 Buenos Aires FRENTE DE IZQUIERDA Y DE TRABAJADORES - UNIDAD  319253
 5 Buenos Aires EN BLANCO                                       304904
 6 Buenos Aires UNITE POR LA LIBERTAD Y LA DIGNIDAD             174887
 7 Buenos Aires FRENTE NOS                                      171376
 8 Buenos Aires MOVIMIENTO AL SOCIALISMO                         71935
 9 Buenos Aires FRENTE PATRIOTA                                  22581
10 Buenos Aires PARTIDO AUTONOMISTA                               8783
# … with 254 more rows
> xprov %<>% 
+     group_by(PROV) %>%
+     mutate(PCT=round(VOTOS / sum(VOTOS) * 100,2)) %>%
+     ungroup()    
> xprov
# A tibble: 264 x 4
   PROV         NOMBRE_AGRUPACION                                VOTOS   PCT
   <fct>        <chr>                                            <dbl> <dbl>
 1 Buenos Aires FRENTE DE TODOS                                4661554 50.7 
 2 Buenos Aires JUNTOS POR EL CAMBIO                           2749946 29.9 
 3 Buenos Aires CONSENSO FEDERAL                                711181  7.73
 4 Buenos Aires FRENTE DE IZQUIERDA Y DE TRABAJADORES - UNIDAD  319253  3.47
 5 Buenos Aires EN BLANCO                                       304904  3.31
 6 Buenos Aires UNITE POR LA LIBERTAD Y LA DIGNIDAD             174887  1.9 
 7 Buenos Aires FRENTE NOS                                      171376  1.86
 8 Buenos Aires MOVIMIENTO AL SOCIALISMO                         71935  0.78
 9 Buenos Aires FRENTE PATRIOTA                                  22581  0.25
10 Buenos Aires PARTIDO AUTONOMISTA                               8783  0.1 
# … with 254 more rows
> xprov_wide <- xprov %>%
+    select(-VOTOS) %>%
+    spread(NOMBRE_AGRUPACION, PCT)
> xprov_wide
# A tibble: 24 x 12
   PROV  `CONSENSO FEDER… `EN BLANCO` `FRENTE DE IZQU… `FRENTE DE TODO…
   <fct>            <dbl>       <dbl>            <dbl>            <dbl>
 1 Buen…             7.73        3.31             3.47             50.7
 2 Cata…             6.41        7.4              1.33             57.4
 3 Chaco             3.44        6.48             1.33             56.0
 4 Chub…             8.19        5.8              3.55             51.0
 5 Ciud…             8.73        3.23             3.92             33.0
 6 Córd…             7.92        3.85             2.68             30.4
 7 Corr…             4.93        1.26             1.12             53.0
 8 Entr…             8.58        1.89             1.99             45.1
 9 Form…             3.7         0.97             0.8              65.9
10 Jujuy            10.0         3.61             3.25             46.1
# … with 14 more rows, and 7 more variables: `FRENTE NOS` <dbl>, `FRENTE
#   PATRIOTA` <dbl>, `JUNTOS POR EL CAMBIO` <dbl>, `MOVIMIENTO AL
#   SOCIALISMO` <dbl>, `MOVIMIENTO DE ACCION VECINAL` <dbl>, `PARTIDO
#   AUTONOMISTA` <dbl>, `UNITE POR LA LIBERTAD Y LA DIGNIDAD` <dbl> 
```
…
